{
    "messages": [
        {
            "id": 1,
            "subject": "Welcome",
            "details": "Welcome to the Community Manager application",
            "createDate": "21/11/2018 10:00",
            "priority": false,
            "userId": 1,
            "viewed" : [1]

        },
        {
            "id": 2,
            "subject": "Message 2",
            "details": "This is message 2 by userId 1",
            "createDate": "22/11/2018 15:21",
            "priority": false,
            "userId": 1,
            "viewed" : [1]
        },
        {
            "id": 3,
            "subject": "Parking",
            "details": "I ask everyone to leave the handicap parking spot free for handicaps",
            "createDate": "04/12/2018 12:45",
            "priority": true,
            "userId": 2,
            "viewed" : [2]
        },
        {
            "id": 4,
            "subject": "Tali is here",
            "details": "hello from tali",
            "createDate": "04/11/2018 12:45",
            "priority": true,
            "userId": 4,
            "viewed" : [4]
        }
    ],
    "comments": [
        {
            "id": 1,
            "details": "Thank you for the warm welcome",
            "createDate": "21/11/2018 18:20",
            "userId": 2,
            "messageId": 1,
            "issueId": null
        },
        {
            "id": 2,
            "details": "This is comment 2 by userId 2 on message 3",
            "createDate": "04/12/2018 15:30",
            "userId": 2,
            "messageId": 3,
            "issueId": null
        },
        {
            "id": 3,
            "details": "This is comment 3 by userId 1 on message 3",
            "createDate": "04/2/2018 16:30",
            "userId": 1,
            "messageId": 3,
            "issueId": null
        },
        {
            "id": 4,
            "details": "Welcome onboard",
            "createDate": "04/11/2018 16:30",
            "userId": 3,
            "messageId": 4,
            "issueId": null
        },
        {
            "id": 5,
            "details": "I agree, and should be urgent",
            "createDate": "05/11/2018 16:30",
            "userId": 2,
            "messageId": null,
            "issueId": 1
        },
        {
            "id": 6,
            "details": "can you add a picture? I could not see the issue",
            "createDate": "20/12/2018 20:30",
            "userId": 3,
            "messageId": null,
            "issueId": 2
        }
    ],
    "users": [
        {
            "id": 1,
            "fname": "Moshe",
            "lname": "Korber",
            "email": "mk@mk.com",
            "pwd": "1234",
            "phone": "055-3322110",
            "isCommittee": "Yes",
            "address": "דבורה הנביאה 17 ,קרית טבעון",
            "appartment": "1",
            "image": "images/Penguins.jpg"
        },
        {
            "id": 2,
            "fname": "amir",
            "lname": "amir",
            "email": "amir@amir.com",
            "pwd": "1234",
            "phone": "055-3322110",
            "isCommittee": "No",
            "address": "דבורה הנביאה 17 ,קרית טבעון",
            "appartment": "2",
            "image": "http://venus.novelplus.co/?i=bf428ccd-c1e8-4109-9109-21f27f70b0cc.jpg"
        },
        {
            "id": 3,
            "fname": "david",
            "lname": "david",
            "email": "david@david.com",
            "pwd": "1234",
            "phone": "055-3322110",
            "isCommittee": "Yes",
            "address": "אינטרנציונל 46 ,חיפה",
            "appartment": "1",
            "image": "images/user-default.png"
        },
        {
            "id": 4,
            "fname": "tali",
            "lname": "tali",
            "email": "tali@tali.com",
            "pwd": "1234",
            "phone": "055-3322110",
            "isCommittee": "No",
            "address": "אינטרנציונל 46 ,חיפה",
            "appartment": "3",
            "image": "images/user-default.png"
        } 
    ],
    "upForVotes": [
        {
            "id": 1,
            "createdBy": 1,
            "createdAt": "04/11/2018 16:30",
            "title": "Repaining building entrance",
            "details": "There is a need to repaint our building entrance.\n We got an offer for 5,000 Shekels, and it will take 3 days work.\n We have 3000 Shekels budget, so each appartment will have to add 400 Shekels.\n Please place your votes Yes/No.",
            "options": [{ "id": 1, "vote": "Yes"}, { "id": 2, "vote": "No"}],
            "dueDate": "10/11/2018 20:00",
            "votes": ["Yes"],
            "voted": ["apartment1"]
        },
        {
            "id": 2,
            "createdBy": 3,
            "createdAt": "14/12/2018 16:30",
            "title": "Replacing building entrance door",
            "details": "Per request from Tali, putting up for vote on replacing the building entrance door.\n cost: 3000-4000 Shekel.\n Please place your votes Yes/No.",
            "options": [{ "id": 1, "vote": "Yes"}, { "id": 2, "vote": "No"}],
            "dueDate": "21/12/2018 20:00",
            "votes": ["Yes"],
            "voted": ["apartment3"]
        }
    ],
    "issues": [
        {
            "id": 1,
            "createdBy": 1,
            "createdAt": "04/11/2018 16:30",
            "title": "Building entrance paint",
            "details": "Our building entrance walls ",
            "urgent": "No",
            "dueDate": "10/11/2018 20:00",
            "votes": "['Yes']",
            "voted": "['apartment1']"
        },
        {
            "id": 2,
            "createdBy": 3,
            "createdAt": "14/12/2018 16:30",
            "title": "Water leak in the garden",
            "details": "We have a water leak in our garden, should be fixed urgently",
            "urgent": "Yes",
            "dueDate": "20/12/2018 18:00",
            "votes": "['Yes']",
            "voted": "['apartment3']"
        }
    ]
}


